Lemur data Visualization with Tidyverse
…
my_data |> 
  group_by(taxon) |> 
  slice_head(n = 2) |> 
  relocate(r_min_dam_age_at_concep_y, .before = dlc_id)

# A tibble: 54 × 54
# Groups:   taxon [27]
   taxon r_min_dam_age_at_concep_y dlc_id hybrid sex   name     current_resident
   <chr>                     <dbl> <chr>  <chr>  <chr> <chr>    <chr>           
 1 CMED                       0.79 1601   N      M     LINUS    N               
 2 CMED                       0.79 1601   N      M     LINUS    N               
 3 DMAD                       4.22 6480   N      M     BLUE DE… N               
 4 DMAD                       4.22 6480   N      M     BLUE DE… N               
 5 EALB                       2.57 3510   N      F     HAGAR    N               
 6 EALB                       2.57 3510   N      F     HAGAR    N               
 7 ECOL                       1.64 2540   N      F     NADIA    N               
 8 ECOL                       1.64 2540   N      F     NADIA    N               
 9 ECOR                       1.7  5531   N      M     PTOLOMY  N               
10 ECOR                       1.7  5531   N      M     PTOLOMY  N               
# ℹ 44 more rows
# ℹ 47 more variables: stud_book <chr>, dob <date>, birth_month <dbl>,
#   estimated_dob <chr>, birth_type <chr>, birth_institution <chr>,
#   litter_size <dbl>, expected_gestation <dbl>, estimated_concep <date>,
#   concep_month <dbl>, dam_id <chr>, dam_name <chr>, dam_taxon <chr>,
#   dam_dob <date>, dam_age_at_concep_y <dbl>, sire_id <chr>, sire_name <chr>,
#   sire_taxon <chr>, sire_dob <date>, sire_age_at_concep_y <dbl>, …

my_data %>% 
  filter(taxon == "PCOQ") %>% 
  select(taxon, age_at_wt_d, weight_g)

# A tibble: 7,994 × 3
   taxon age_at_wt_d weight_g
   <chr>       <dbl>    <dbl>
 1 PCOQ            1      107
 2 PCOQ           15      172
 3 PCOQ           21      206
 4 PCOQ           28      241
 5 PCOQ           40      317
 6 PCOQ           48      372
 7 PCOQ           56      432
 8 PCOQ           62      486
 9 PCOQ           69      532
10 PCOQ           76      581
# ℹ 7,984 more rows
